{
   "domain" : {
      "projects" : {
         "project" : [ {
            "id" : "69a5ce3d-ca86-49a2-9165-6b1be32d5cba",
            "dateCreate" : "2020-01-30T18:13:51.393+03:00",
            "description" : "new",
            "name" : "new",
            "status" : "PLANNED",
            "userId" : "1141281f-dfd9-48cb-86df-221476c71e40"
         } ]
      },
      "tasks" : {
         "task" : [ ]
      },
      "users" : {
         "user" : [ {
            "id" : "1141281f-dfd9-48cb-86df-221476c71e40",
            "login" : "admin",
            "password" : "21232f297a57a5a743894a0e4a801fc3",
            "role" : "ADMIN"
         }, {
            "id" : "1e933f93-9e74-41a3-ae68-51839c28fe99",
            "login" : "user",
            "password" : "ee11cbb19052e40b07aac0ca060c23ee",
            "role" : "USER"
         } ]
      },
      "sessions" : {
         "session" : [ {
            "id" : "8e5b9f18-8ec4-4096-b166-3e2375be90d6",
            "roles" : [ "ADMIN" ],
            "signature" : "ca9d77b5f29d5206f9a7a8b68aedf8b3",
            "timeStamp" : 1580397215569,
            "userId" : "1141281f-dfd9-48cb-86df-221476c71e40"
         } ]
      }
   }
}